Chapter 3 Data wrangling | Applied Geodata Science
…
3.2.3 Reading tabular data

Tabular data are organised in rows and columns. R data frames are tabular data. As introduced in Chapter 1, each column can be regarded as a vector of a certain type. Each row contains the same number of columns and each column contains the same type of values (for example numeric, or characters). Each row can be regarded as a separate instance or data record - for example a record of simultaneously taken measurements of different variables, along with some attributes and meta information (e.g., the date). In Chapter 5, you will be introduced to other types of data.

The most common format for tabular data are CSV (comma-separated-values), typically indicated by the file name suffix .csv. CSV is a text-based file format, readable across platforms and does not rely on proprietary software (as opposed to, for example, .xlsx). The first row in a CSV file typically specifies the name of the variable provided in the respective column.

Let’s get started with working with our example data set and read it into R, as the variable half_hourly_fluxes. Note that the naming of variables can be important for keeping code legible. Chose intuitively understandable names that describe what the object represents (as done here).

To import the data into the R environment, we use the function read_csv() from the {readr} package (part of tidyverse). In other R code, you will also encounter the base R read.csv() function. However, read_csv() is much faster and reads data into a tidyverse-data frame (a tibble) which has some useful additional characteristics, on top of a common R data frame. For example, tibbles generate a nicely readable output when printing the object as is done below.

half_hourly_fluxes <- readr::read_csv("./data/FLX_CH-Lae_FLUXNET2015_FULLSET_HH_2004-2006.csv")
half_hourly_fluxes

## # A tibble: 52,608 × 235
##    TIMEST…¹ TIMES…² TA_F_…³ TA_F_…⁴ TA_ERA  TA_F TA_F_QC SW_IN…⁵ SW_IN…⁶ SW_IN…⁷
##       <dbl>   <dbl>   <dbl>   <dbl>  <dbl> <dbl>   <dbl>   <dbl>   <dbl>   <dbl>
##  1  2.00e11 2.00e11   -9999   -9999  -2.22 -2.22       2       0   -9999   -9999
##  2  2.00e11 2.00e11   -9999   -9999  -2.25 -2.25       2       0   -9999   -9999
##  3  2.00e11 2.00e11   -9999   -9999  -2.28 -2.28       2       0   -9999   -9999
##  4  2.00e11 2.00e11   -9999   -9999  -2.50 -2.50       2       0   -9999   -9999
##  5  2.00e11 2.00e11   -9999   -9999  -2.72 -2.72       2       0   -9999   -9999
##  6  2.00e11 2.00e11   -9999   -9999  -2.94 -2.94       2       0   -9999   -9999
##  7  2.00e11 2.00e11   -9999   -9999  -3.17 -3.17       2       0   -9999   -9999
##  8  2.00e11 2.00e11   -9999   -9999  -3.39 -3.39       2       0   -9999   -9999
##  9  2.00e11 2.00e11   -9999   -9999  -3.61 -3.61       2       0   -9999   -9999
## 10  2.00e11 2.00e11   -9999   -9999  -3.59 -3.59       2       0   -9999   -9999
## # … with 52,598 more rows, 225 more variables: SW_IN_ERA <dbl>, SW_IN_F <dbl>,
## #   SW_IN_F_QC <dbl>, LW_IN_F_MDS <dbl>, LW_IN_F_MDS_QC <dbl>, LW_IN_ERA <dbl>,
## #   LW_IN_F <dbl>, LW_IN_F_QC <dbl>, LW_IN_JSB <dbl>, LW_IN_JSB_QC <dbl>,
## #   LW_IN_JSB_ERA <dbl>, LW_IN_JSB_F <dbl>, LW_IN_JSB_F_QC <dbl>,
## #   VPD_F_MDS <dbl>, VPD_F_MDS_QC <dbl>, VPD_ERA <dbl>, VPD_F <dbl>,
## #   VPD_F_QC <dbl>, PA <dbl>, PA_ERA <dbl>, PA_F <dbl>, PA_F_QC <dbl>, P <dbl>,
## #   P_ERA <dbl>, P_F <dbl>, P_F_QC <dbl>, WS <dbl>, WS_ERA <dbl>, WS_F <dbl>, …
…
All data frames have two dimensions, rows and columns. Our data frame is organised along half-hourly time steps in rows. As described above, these time steps belong to different days, months, and years, although these “axes of variation” are not reflected by the structure of the data frame object itself and we do not have columns that indicate the day, month or year of each half-hourly time step. This would be redundant information since the date-time objects of columns TIMESTAMP_* contain this information. However, for certain applications, it may be useful to separate information regarding these axes of variation more explicitly. For example by:

half_hourly_fluxes |>
  mutate(year = year(TIMESTAMP_START),
         month = month(TIMESTAMP_START),
         doy = yday(TIMESTAMP_START)     # day of year
         ) |>
  select(TIMESTAMP_START, TIMESTAMP_END, year, month, doy)  # for displaying

## # A tibble: 52,608 × 5
##    TIMESTAMP_START     TIMESTAMP_END        year month   doy
##    <dttm>              <dttm>              <dbl> <dbl> <dbl>
##  1 2004-01-01 00:00:00 2004-01-01 00:30:00  2004     1     1
##  2 2004-01-01 00:30:00 2004-01-01 01:00:00  2004     1     1
##  3 2004-01-01 01:00:00 2004-01-01 01:30:00  2004     1     1
##  4 2004-01-01 01:30:00 2004-01-01 02:00:00  2004     1     1
##  5 2004-01-01 02:00:00 2004-01-01 02:30:00  2004     1     1
##  6 2004-01-01 02:30:00 2004-01-01 03:00:00  2004     1     1
##  7 2004-01-01 03:00:00 2004-01-01 03:30:00  2004     1     1
##  8 2004-01-01 03:30:00 2004-01-01 04:00:00  2004     1     1
##  9 2004-01-01 04:00:00 2004-01-01 04:30:00  2004     1     1
## 10 2004-01-01 04:30:00 2004-01-01 05:00:00  2004     1     1
## # … with 52,598 more rows

Note that we used mutate() here to create a new variable (column) in the data frame, as opposed to above where we overwrote an existing variable with the same function.

3.2.8 Tidy data

Data comes in many forms and shapes. For example, Excel provides a playground for even the wildest layouts of information in some remotely tabular form and merged cells as we will see in the Exercises. A data frame imposes a relatively strict formatting in named columns of equal length. But even data frames can come in various shapes - even if the information they contain is the same.

co2_concentration

## # A tibble: 36 × 3
##     year month co2_concentration
##    <int> <ord>             <dbl>
##  1  1959 Jan                315.
##  2  1959 Feb                316.
##  3  1959 Mar                316.
##  4  1959 Apr                318.
##  5  1959 May                318.
##  6  1959 Jun                318 
##  7  1959 Jul                316.
##  8  1959 Aug                315.
##  9  1959 Sep                314.
## 10  1959 Oct                313.
## # … with 26 more rows
…
Figure 3.1: Rules for tidy data. Figure from Wickham and Grolemund (2017)

The {tidyr} package provides powerful functions to make data tidy. In the examples above, co2_concentration_monthly and and co2_concentration_yearly are not tidy. In co2_concentration_monthly, the same variable (CO2 concentration) appears in multiple columns. Organising columns by months leads to a “wide” table format. We can convert it to a “long” format by:

co2_concentration_monthly |> 
  pivot_longer(cols = 2:13, names_to = "month", values_to = "co2")

## # A tibble: 36 × 3
##     year month   co2
##    <int> <chr> <dbl>
##  1  1959 Jan    315.
##  2  1959 Feb    316.
##  3  1959 Mar    316.
##  4  1959 Apr    318.
##  5  1959 May    318.
##  6  1959 Jun    318 
##  7  1959 Jul    316.
##  8  1959 Aug    315.
##  9  1959 Sep    314.
## 10  1959 Oct    313.
## # … with 26 more rows
…
daily_fluxes <- half_hourly_fluxes |> 
    mutate(date = as_date(TIMESTAMP_START)) |>   # converts time object to a date object
    group_by(date) |> 
    summarise(GPP_NT_VUT_REF = mean(GPP_NT_VUT_REF, na.rm = TRUE),
              n_datapoints = n(), # counts the number of observations per day
              n_measured = sum(NEE_VUT_REF_QC == 0), # counts the number of actually measured data (excluding gap-filled and poor quality data)
              SW_IN_F = mean(SW_IN_F, na.rm = TRUE),  # we will use this later
              .groups = 'drop' # to un-group the resulting data frame
              ) |> 
    mutate(f_measured = n_measured / n_datapoints) # calculate the fraction of measured values over total observations
write_csv(daily_fluxes, file = "data/daily_fluxes.csv")
daily_fluxes

## # A tibble: 1,096 × 6
##    date       GPP_NT_VUT_REF n_datapoints n_measured SW_IN_F f_measured
##    <date>              <dbl>        <int>      <int>   <dbl>      <dbl>
##  1 2004-01-01        -0.0138           48          0    38.1          0
##  2 2004-01-02         0.768            48          0    23.9          0
##  3 2004-01-03         0.673            48          0    54.1          0
##  4 2004-01-04        -0.322            48          0    41.7          0
##  5 2004-01-05         0.841            48          0    17.4          0
##  6 2004-01-06         1.22             48          0    40.5          0
##  7 2004-01-07         0.215            48          0    31.6          0
##  8 2004-01-08         1.11             48          0    58.4          0
##  9 2004-01-09         1.44             48          0    11.9          0
## 10 2004-01-10         0.364            48          0    27.6          0
## # … with 1,086 more rows

More info on how to group values using summarise functions here, or a summary on the inputs the function group_by() and summarise() take.

Aggregating is related to nesting performed by the {tidyr} function nest():

half_hourly_fluxes |>  
  mutate(date = as_date(TIMESTAMP_START)) |>
  group_by(date) |> 
  nest()

## # A tibble: 1,096 × 2
## # Groups:   date [1,096]
##    date       data              
##    <date>     <list>            
##  1 2004-01-01 <tibble [48 × 20]>
##  2 2004-01-02 <tibble [48 × 20]>
##  3 2004-01-03 <tibble [48 × 20]>
##  4 2004-01-04 <tibble [48 × 20]>
##  5 2004-01-05 <tibble [48 × 20]>
##  6 2004-01-06 <tibble [48 × 20]>
##  7 2004-01-07 <tibble [48 × 20]>
##  8 2004-01-08 <tibble [48 × 20]>
##  9 2004-01-09 <tibble [48 × 20]>
## 10 2004-01-10 <tibble [48 × 20]>
## # … with 1,086 more rows
…
  return(df)
}

… and apply this function to each data frame within our list of data frames:

list_df <- purrr::map(list_df, ~clean_data_dd(.))

Having different data frames as elements of a list may be impractical. Since we read in similarly formatted files and selected always the same variables in each data frame, all elements of the list of data frames list_df share the same columns. This suggests that we can collapse our list of data frames and “stack” data frames along rows. As described above, this can be done using bind_rows() and we can automatically create a new column "siteid" in the stacked data frame that takes the name of the corresponding list element.

daily_fluxes_allsites <- bind_rows(list_df, .id = "siteid")
daily_fluxes_allsites

## # A tibble: 23,011 × 21
##    siteid      TIMESTAMP    TA_F SW_IN_F LW_IN_F VPD_F  PA_F   P_F  WS_F GPP_N…¹
##    <chr>       <date>      <dbl>   <dbl>   <dbl> <dbl> <dbl> <dbl> <dbl>   <dbl>
##  1 ./data/FLX… 1997-01-01 -4.57     77.4    223. 0.565  82.6   0.4 0.559  0.697 
##  2 ./data/FLX… 1997-01-02 -3.34     45.6    235. 0.978  82.9   0   1.11   1.04  
##  3 ./data/FLX… 1997-01-03  0.278    74.1    239. 2.24   82.4   0   2.03  -0.242 
##  4 ./data/FLX… 1997-01-04 -1.88     58.1    250. 1.38   81.7   1.8 1.92   0.247 
##  5 ./data/FLX… 1997-01-05 -4.96     80.8    248. 1.16   82.3   0   0.407  0.520 
##  6 ./data/FLX… 1997-01-06 -4.48     59.6    237. 0.838  82.7   0   0.466  0.0182
##  7 ./data/FLX… 1997-01-07 -3.15     45.5    234. 1.33   82.9   0   1.03   0.0777
##  8 ./data/FLX… 1997-01-08 -2.45     76.7    222. 1.87   82.7   0   1.95  -0.484 
##  9 ./data/FLX… 1997-01-09 -2.43     47.6    251. 1.44   82.2   0   0.785 -0.379 
## 10 ./data/FLX… 1997-01-10 -3.09     39.6    242. 0.776  82.8   0   1.25  -0.552 
## # … with 23,001 more rows, 11 more variables: NEE_VUT_REF_QC <dbl>,
## #   SWC_F_MDS_1 <dbl>, SWC_F_MDS_2 <dbl>, SWC_F_MDS_3 <dbl>,
## #   SWC_F_MDS_1_QC <dbl>, SWC_F_MDS_2_QC <dbl>, SWC_F_MDS_3_QC <dbl>,
## #   SWC_F_MDS_4 <dbl>, SWC_F_MDS_4_QC <dbl>, SWC_F_MDS_5 <dbl>,
## #   SWC_F_MDS_5_QC <dbl>, and abbreviated variable name ¹​GPP_NT_VUT_REF
…
The {stringr} package (part of tidyverse) offers a set of functions for working with strings. Wikham and Grolemund (2017) provide a more comprehensive introduction to working with strings. Here, we would like to extract the six characters, starting at position 12. The function str_sub() does that job.

vec_sites <- str_sub(vec_files, start = 12, end = 17)
head(vec_sites)

## [1] "CH-Dav" "CH-Lae" "FI-Hyy" "FR-Pue"

We can use this function to mutate all values of column "siteid", overwriting it with just these six characters.

daily_fluxes_allsites <- daily_fluxes_allsites |>
  mutate(siteid = str_sub(siteid, start = 12, end = 17))

daily_fluxes_allsites

## # A tibble: 23,011 × 21
##    siteid TIMESTAMP    TA_F SW_IN_F LW_IN_F VPD_F  PA_F   P_F  WS_F GPP_NT_VUT…¹
##    <chr>  <date>      <dbl>   <dbl>   <dbl> <dbl> <dbl> <dbl> <dbl>        <dbl>
##  1 CH-Dav 1997-01-01 -4.57     77.4    223. 0.565  82.6   0.4 0.559       0.697 
##  2 CH-Dav 1997-01-02 -3.34     45.6    235. 0.978  82.9   0   1.11        1.04  
##  3 CH-Dav 1997-01-03  0.278    74.1    239. 2.24   82.4   0   2.03       -0.242 
##  4 CH-Dav 1997-01-04 -1.88     58.1    250. 1.38   81.7   1.8 1.92        0.247 
##  5 CH-Dav 1997-01-05 -4.96     80.8    248. 1.16   82.3   0   0.407       0.520 
##  6 CH-Dav 1997-01-06 -4.48     59.6    237. 0.838  82.7   0   0.466       0.0182
##  7 CH-Dav 1997-01-07 -3.15     45.5    234. 1.33   82.9   0   1.03        0.0777
##  8 CH-Dav 1997-01-08 -2.45     76.7    222. 1.87   82.7   0   1.95       -0.484 
##  9 CH-Dav 1997-01-09 -2.43     47.6    251. 1.44   82.2   0   0.785      -0.379 
## 10 CH-Dav 1997-01-10 -3.09     39.6    242. 0.776  82.8   0   1.25       -0.552 
## # … with 23,001 more rows, 11 more variables: NEE_VUT_REF_QC <dbl>,
## #   SWC_F_MDS_1 <dbl>, SWC_F_MDS_2 <dbl>, SWC_F_MDS_3 <dbl>,
## #   SWC_F_MDS_1_QC <dbl>, SWC_F_MDS_2_QC <dbl>, SWC_F_MDS_3_QC <dbl>,
## #   SWC_F_MDS_4 <dbl>, SWC_F_MDS_4_QC <dbl>, SWC_F_MDS_5 <dbl>,
## #   SWC_F_MDS_5_QC <dbl>, and abbreviated variable name ¹​GPP_NT_VUT_REF
…
