Chapter 2 Programming primers | Applied Geodata Science
…
In the first tutorial, we introduced data frames as an R object. Now, let’s get our hands on actual data for demonstrating how data is read, manipulated and written. As most of the code displayed in this book, the code chunks below are executable. You can try it out by opening the the book’s R project in RStudio.

We are going to work with data from ecosystem flux measurements, taken by the eddy covariance technique, and provided as part of the FLUXNET2015 dataset (Pastorello2020?), which you can see here. The data we’re using below comes from a flux tower near Zürich (CH-Lae, located on the Laegern mountain between Regensberg and Baden and run by our colleagues at ETH).

The data is stored as a Comma Separated Values file (.csv). This is a plain-text, and therefore a non-proprietary format. To follow the open science principles for data, distribute your data in a format that is non-proprietary and readable across platforms and applications. For example, avoid distributing your data as an Excel spreadsheat (.xlsx), or a Matlab data object (.mat), or an R data object (.RData, or .rds).

2.2.3.1 Reading data

To import the data into the R environment, we use the function read_csv() from the {tidyverse} package. In other R code, you will also encounter the base R read.csv() function. However, read_csv() is much faster and reads data into a tidyverse-data frame (a tibble) which has some useful additional characteristics, on top of a common R data frame. To tell the function where the data is located, pass the data’s path as an argument. You can either use an absolute path, starting from C:/ on a Windows computer or ~/ on a Mac or Linux. Or, alternatively, you can provide a relative path, where ./ points to the present working directory and ../ is one level up, or ../../ is two levels up, etc. We recommend that you work with R projects and use relative paths, because the working directory is set to the root directory of the R project and relative paths will also work on another person’s computer, helping with reproducibility.

df <- readr::read_csv("./data/FLX_CH-Lae_FLUXNET2015_FULLSET_HH_2004-2006.csv")
print(df)

## # A tibble: 52,608 × 235
##    TIMEST…¹ TIMES…² TA_F_…³ TA_F_…⁴ TA_ERA  TA_F TA_F_QC SW_IN…⁵ SW_IN…⁶ SW_IN…⁷
##       <dbl>   <dbl>   <dbl>   <dbl>  <dbl> <dbl>   <dbl>   <dbl>   <dbl>   <dbl>
##  1  2.00e11 2.00e11   -9999   -9999  -2.22 -2.22       2       0   -9999   -9999
##  2  2.00e11 2.00e11   -9999   -9999  -2.25 -2.25       2       0   -9999   -9999
##  3  2.00e11 2.00e11   -9999   -9999  -2.28 -2.28       2       0   -9999   -9999
##  4  2.00e11 2.00e11   -9999   -9999  -2.50 -2.50       2       0   -9999   -9999
##  5  2.00e11 2.00e11   -9999   -9999  -2.72 -2.72       2       0   -9999   -9999
##  6  2.00e11 2.00e11   -9999   -9999  -2.94 -2.94       2       0   -9999   -9999
##  7  2.00e11 2.00e11   -9999   -9999  -3.17 -3.17       2       0   -9999   -9999
##  8  2.00e11 2.00e11   -9999   -9999  -3.39 -3.39       2       0   -9999   -9999
##  9  2.00e11 2.00e11   -9999   -9999  -3.61 -3.61       2       0   -9999   -9999
## 10  2.00e11 2.00e11   -9999   -9999  -3.59 -3.59       2       0   -9999   -9999
## # … with 52,598 more rows, 225 more variables: SW_IN_ERA <dbl>, SW_IN_F <dbl>,
## #   SW_IN_F_QC <dbl>, LW_IN_F_MDS <dbl>, LW_IN_F_MDS_QC <dbl>, LW_IN_ERA <dbl>,
## #   LW_IN_F <dbl>, LW_IN_F_QC <dbl>, LW_IN_JSB <dbl>, LW_IN_JSB_QC <dbl>,
## #   LW_IN_JSB_ERA <dbl>, LW_IN_JSB_F <dbl>, LW_IN_JSB_F_QC <dbl>,
## #   VPD_F_MDS <dbl>, VPD_F_MDS_QC <dbl>, VPD_ERA <dbl>, VPD_F <dbl>,
## #   VPD_F_QC <dbl>, PA <dbl>, PA_ERA <dbl>, PA_F <dbl>, PA_F_QC <dbl>, P <dbl>,
## #   P_ERA <dbl>, P_F <dbl>, P_F_QC <dbl>, WS <dbl>, WS_ERA <dbl>, WS_F <dbl>, …
…
df is a data frame. This is similar to a matrix and has two dimensions (rows and columns). If we want to extract specific data from it, we specify the indices, i.e. the “coordinates”, of the data. For two-dimensional objects (data frames, matrices), the first index refers to rows and the second to columns. For example, to refer to the element on the third row in the first column, we write:

df[3,1]

## # A tibble: 1 × 1
##   TIMESTAMP_START
##             <dbl>
## 1    200401010100

Reducing a data frame (tibble) to only the first columns can be done by:

df[, 1]

## # A tibble: 52,608 × 1
##    TIMESTAMP_START
##              <dbl>
##  1    200401010000
##  2    200401010030
##  3    200401010100
##  4    200401010130
##  5    200401010200
##  6    200401010230
##  7    200401010300
##  8    200401010330
##  9    200401010400
## 10    200401010430
## # … with 52,598 more rows
…
df[1:3, 3] # reduces the data frame (tibble) to its first three rows and the 3rd column

## # A tibble: 3 × 1
##   TA_F_MDS
##      <dbl>
## 1    -9999
## 2    -9999
## 3    -9999

To reduce the data frame (tibble) to several columns, the function c() is used. This outputs the data frame (tibble) reduced to the selected row or column numbers inside c().

df[, c(1,4,7)]

## # A tibble: 52,608 × 3
##    TIMESTAMP_START TA_F_MDS_QC TA_F_QC
##              <dbl>       <dbl>   <dbl>
##  1    200401010000       -9999       2
##  2    200401010030       -9999       2
##  3    200401010100       -9999       2
##  4    200401010130       -9999       2
##  5    200401010200       -9999       2
##  6    200401010230       -9999       2
##  7    200401010300       -9999       2
##  8    200401010330       -9999       2
##  9    200401010400       -9999       2
## 10    200401010430       -9999       2
## # … with 52,598 more rows

Another method is to select the columns by column names, i.e. giving as input a string vector with the name of each column we want to select (again, this is Base R notation). This is especially useful if the columns we want to select are not contiguous. For example:

# Selecting data by name in base R
df[, c("TIMESTAMP_START", "TA_F_MDS", "TA_F_MDS_QC")]

## # A tibble: 52,608 × 3
##    TIMESTAMP_START TA_F_MDS TA_F_MDS_QC
##              <dbl>    <dbl>       <dbl>
##  1    200401010000    -9999       -9999
##  2    200401010030    -9999       -9999
##  3    200401010100    -9999       -9999
##  4    200401010130    -9999       -9999
##  5    200401010200    -9999       -9999
##  6    200401010230    -9999       -9999
##  7    200401010300    -9999       -9999
##  8    200401010330    -9999       -9999
##  9    200401010400    -9999       -9999
## 10    200401010430    -9999       -9999
## # … with 52,598 more rows

In Chapter 3, we will use the tidyverse, which is a set of R packages designed for working with tidy data and writing code in a way that makes your workflow more clear and understandable. A code chunk which does the same as above, but is written for the tidyverse can read as follows.

select(df, 1) # reduces the data frame (tibble) to its first column

## # A tibble: 52,608 × 1
##    TIMESTAMP_START
##              <dbl>
##  1    200401010000
##  2    200401010030
##  3    200401010100
##  4    200401010130
##  5    200401010200
##  6    200401010230
##  7    200401010300
##  8    200401010330
##  9    200401010400
## 10    200401010430
## # … with 52,598 more rows

select(df, TIMESTAMP_START, TA_F_MDS, TA_F_MDS_QC)  # reduces the data frame to columns specified by names

## # A tibble: 52,608 × 3
##    TIMESTAMP_START TA_F_MDS TA_F_MDS_QC
##              <dbl>    <dbl>       <dbl>
##  1    200401010000    -9999       -9999
##  2    200401010030    -9999       -9999
##  3    200401010100    -9999       -9999
##  4    200401010130    -9999       -9999
##  5    200401010200    -9999       -9999
##  6    200401010230    -9999       -9999
##  7    200401010300    -9999       -9999
##  8    200401010330    -9999       -9999
##  9    200401010400    -9999       -9999
## 10    200401010430    -9999       -9999
## # … with 52,598 more rows

As a further shortcut in tidyverse, we can use the pipe %>% operator. The data frame is still reduced to its first column:

df %>% select(1)

## # A tibble: 52,608 × 1
##    TIMESTAMP_START
##              <dbl>
##  1    200401010000
##  2    200401010030
##  3    200401010100
##  4    200401010130
##  5    200401010200
##  6    200401010230
##  7    200401010300
##  8    200401010330
##  9    200401010400
## 10    200401010430
## # … with 52,598 more rows
…
